-216 -16 744 
-64 280 -64 -64 488 
992 
80 -216 -64 608 
288 -72 -64 544 
-64 -40 872 
-200 -200 -24 -200 -16 312 
-184 224 -16 -344 192 
-16 16 -72 -64 -24 -32 -40 -48 -56 -64 480 
-40 88 -96 -320 -160 248 
